{
    "KPlugin": {
        "Authors": [
            {
                "Email": "stephane@mankowski.fr",
                "Name": "Stephane MANKOWSKI",
                "Name[ca@valencia]": "Stephane MANKOWSKI",
                "Name[ca]": "Stephane MANKOWSKI",
                "Name[en_GB]": "Stephane MANKOWSKI",
                "Name[es]": "Stephane MANKOWSKI",
                "Name[fi]": "Stephane MANKOWSKI",
                "Name[fr]": "Stephane MANKOWSKI",
                "Name[ia]": "Stephane MANKOWSKI",
                "Name[it]": "Stephane MANKOWSKI",
                "Name[ka]": "Stephane MANKOWSKI",
                "Name[nl]": "Stephane MANKOWSKI",
                "Name[pt]": "Stephane MANKOWSKI",
                "Name[ru]": "Stephane MANKOWSKI",
                "Name[sl]": "Stephane MANKOWSKI",
                "Name[sv]": "Stephane MANKOWSKI",
                "Name[tr]": "Stephane MANKOWSKI",
                "Name[uk]": "Stephane MANKOWSKI",
                "Name[x-test]": "xxStephane MANKOWSKIxx"
            }
        ],
        "Category": "Plugins",
        "Description": "A Skrooge plugin to import MMB files",
        "Description[ca@valencia]": "Un connector de Skrooge per a importar fitxers MMB",
        "Description[ca]": "Un connector de l'Skrooge per a importar fitxers MMB",
        "Description[cs]": "Modul Skrooge pro import souborů MMB",
        "Description[en_GB]": "A Skrooge plugin to import MMB files",
        "Description[es]": "Complemento de Skrooge para importar archivos MMB",
        "Description[fi]": "Skroogen MMB-tiedostojen tuontiliitännäinen",
        "Description[fr]": "Un module externe de Skrooge pour l'importation de fichiers « MMB »",
        "Description[it]": "Un'estensione di Skrooge per importare i file MMB",
        "Description[ka]": "Skrooge -ის დამატება MMB -ის შემოსატანად",
        "Description[nl]": "Een Skrooge-plugin voor het importeren van MMB-bestanden",
        "Description[pt]": "Um 'plugin' do Skrooge para importar ficheiros MMB",
        "Description[ru]": "Модуль импорта файлов MMB",
        "Description[sl]": "Vtičnik Skrooge za uvažanje datotek MMB",
        "Description[sv]": "Ett insticksprogram till Skrooge för att importera MMB-filer",
        "Description[tr]": "MMB dosyalarını içe aktarmak için Varyemez eklentisi",
        "Description[uk]": "Додаток до Skrooge для імпортування даних з файлів MMB",
        "Description[x-test]": "xxA Skrooge plugin to import MMB filesxx",
        "EnabledByDefault": true,
        "Icon": "skrooge",
        "Id": "skrooge_import_mmb",
        "License": "GPL",
        "Name": "Skrooge import MMB plugin",
        "Name[bs]": "Skrooge dodatak za MMB uvoz",
        "Name[ca@valencia]": "Connector d'importació de MMB de Skrooge",
        "Name[ca]": "Connector d'importació de MMB de l'Skrooge",
        "Name[cs]": "Modul Skrooge pro import MMB",
        "Name[da]": "Plugin til import af MMB til Skrooge",
        "Name[de]": "Skrooge-MMB-Importmodul",
        "Name[el]": "Skrooge import MMB plugin",
        "Name[en_GB]": "Skrooge import MMB plugin",
        "Name[es]": "Complemento de importación MMB en Skrooge",
        "Name[et]": "Skrooge MMB impordi plugin",
        "Name[fi]": "Skroogen MMB-tuontiliitännäinen",
        "Name[fr]": "Moteur externe de Skrooge pour l'importation « MMB »",
        "Name[gl]": "Complemento de importación de MMB a Skrooge",
        "Name[hu]": "Skrooge MMB importáló bővítmény",
        "Name[it]": "Estensione di Skrooge per l'importazione MMB",
        "Name[ka]": "Skrooge -ის დამატება MMB -ის შემოსატანად",
        "Name[lt]": "Skrooge MMB importavimo papildinys",
        "Name[nb]": "Skrooge-modul for MMB-import",
        "Name[nl]": "Plugin van Skrooge voor importeren van MMB",
        "Name[pl]": "Wtyczka importu MMB dla Skrooge",
        "Name[pt]": "'Plugin' de importação de MMB do Skrooge",
        "Name[pt_BR]": "Plugin de importação de MMB para o Skrooge",
        "Name[ru]": "Модуль импорта файлов MMB",
        "Name[sk]": "Skrooge plugin MMB import",
        "Name[sl]": "Vtičnik Skrooge uvoza MMB",
        "Name[sv]": "Skrooge MMB-importinsticksprogram",
        "Name[tr]": "Varyemez MMB içe aktarma eklentisi",
        "Name[uk]": "Додаток імпортування MMB до Skrooge",
        "Name[x-test]": "xxSkrooge import MMB pluginxx",
        "Name[zh_TW]": "Skrooge 匯入 MMB 外掛程式",
        "Version": "1.0",
        "Website": "https://skrooge.org/"
    },
    "X-Krunner-ID": "Skrooge import MMB plugin"
}
