{
    "KPlugin": {
        "Authors": [
            {
                "Email": "stephane@mankowski.fr",
                "Name": "Stephane MANKOWSKI",
                "Name[ca@valencia]": "Stephane MANKOWSKI",
                "Name[ca]": "Stephane MANKOWSKI",
                "Name[en_GB]": "Stephane MANKOWSKI",
                "Name[es]": "Stephane MANKOWSKI",
                "Name[fi]": "Stephane MANKOWSKI",
                "Name[fr]": "Stephane MANKOWSKI",
                "Name[ia]": "Stephane MANKOWSKI",
                "Name[it]": "Stephane MANKOWSKI",
                "Name[ka]": "Stephane MANKOWSKI",
                "Name[nl]": "Stephane MANKOWSKI",
                "Name[pt]": "Stephane MANKOWSKI",
                "Name[sl]": "Stephane MANKOWSKI",
                "Name[tr]": "Stephane MANKOWSKI",
                "Name[uk]": "Stephane MANKOWSKI",
                "Name[x-test]": "xxStephane MANKOWSKIxx"
            }
        ],
        "Category": "Plugins",
        "Description": "A Skrooge plugin to import MT940 files",
        "Description[ca@valencia]": "Un connector de Skrooge per a importar fitxers MT940",
        "Description[ca]": "Un connector de l'Skrooge per a importar fitxers MT940",
        "Description[cs]": "Modul Skrooge pro import souborů MT",
        "Description[en_GB]": "A Skrooge plugin to import MT940 files",
        "Description[es]": "Complemento de Skrooge para importar archivos MT940",
        "Description[fi]": "Skroogen MT940-tiedostojen tuontiliitännäinen",
        "Description[fr]": "Un module externe de Skrooge pour l'importation de fichiers « MT940 »",
        "Description[it]": "Un'estensione di Skrooge per importare i file MT940",
        "Description[ka]": "Skrooge -ის დამატება MT940 -ის შემოსატანად",
        "Description[nl]": "Een Skrooge-plugin voor het importeren van MT940-bestanden",
        "Description[pt]": "Um 'plugin' do Skrooge para importar ficheiros MT940",
        "Description[sl]": "Vtičnik Skrooge za uvažanje datotek MT940",
        "Description[tr]": "MT940 dosyalarını içe aktarmak için Varyemez eklentisi",
        "Description[uk]": "Додаток до Skrooge для імпортування даних з файлів MT940",
        "Description[x-test]": "xxA Skrooge plugin to import MT940 filesxx",
        "EnabledByDefault": true,
        "Icon": "skrooge",
        "Id": "skrooge_import_mt940",
        "License": "GPL",
        "Name": "Skrooge import MT940 plugin",
        "Name[bs]": "Skrooge dodatak za MT940 uvoz",
        "Name[ca@valencia]": "Connector d'importació de MT940 de Skrooge",
        "Name[ca]": "Connector d'importació de MT940 de l'Skrooge",
        "Name[cs]": "Modul Skrooge pro import MT940",
        "Name[da]": "Plugin til import af MT940 til Skrooge",
        "Name[de]": "Skrooge-MT940-Importmodul",
        "Name[el]": "Skrooge import MT940 plugin",
        "Name[en_GB]": "Skrooge import MT940 plugin",
        "Name[es]": "Complemento de importación MT940 en Skrooge",
        "Name[et]": "Skrooge MT940 impordi plugin",
        "Name[fi]": "Skroogen MT940-tuontiliitännäinen",
        "Name[fr]": "Moteur externe de Skrooge pour l'importation « MT940 »",
        "Name[gl]": "Complemento de importación de MT940 a Skrooge",
        "Name[hu]": "Skrooge MT940 importáló bővítmény",
        "Name[it]": "Estensione di Skrooge per l'importazione MT940",
        "Name[ka]": "Skrooge -ის დამატება MT940 -ის შემოსატანად",
        "Name[lt]": "Skrooge MT940 importavimo papildinys",
        "Name[nb]": "Skrooge-modul for MT940-import",
        "Name[nl]": "Plugin van Skrooge voor importeren van MT940",
        "Name[pl]": "Wtyczka importu MT940 dla Skrooge",
        "Name[pt]": "'Plugin' de importação de MT940 do Skrooge",
        "Name[pt_BR]": "Plugin de importação de MT940 para o Skrooge",
        "Name[ru]": "Модуль импорта файлов MT940",
        "Name[sk]": "Skrooge plugin MT940 import",
        "Name[sl]": "Vtičnik Skrooge uvoza MT940",
        "Name[sv]": "Skrooge MT940-importinsticksprogram",
        "Name[tr]": "Varyemez MT940 içe aktarma eklentisi",
        "Name[uk]": "Додаток імпортування MT940 до Skrooge",
        "Name[x-test]": "xxSkrooge import MT940 pluginxx",
        "Name[zh_TW]": "Skrooge 匯入 MT940 外掛程式",s
        "Version": "1.0",
        "Website": "https://skrooge.org/"
    },
    "X-Krunner-ID": "Skrooge import MT940 plugin"
}
