{
    "KPlugin": {
        "Authors": [
            {
                "Email": "stephane@mankowski.fr",
                "Name": "Stephane MANKOWSKI,miraks",
                "Name[ca@valencia]": "Stephane MANKOWSKI,miraks",
                "Name[ca]": "Stephane MANKOWSKI,miraks",
                "Name[en_GB]": "Stephane MANKOWSKI,miraks",
                "Name[es]": "Stephane MANKOWSKI,miraks",
                "Name[fi]": "Stephane MANKOWSKI,miraks",
                "Name[fr]": "Stephane MANKOWSKI, miraks",
                "Name[ia]": "Stephane MANKOWSKI,miraks",
                "Name[it]": "Stephane MANKOWSKI,miraks",
                "Name[ka]": "Stephane MANKOWSKI,miraks",
                "Name[nl]": "Stephane MANKOWSKI,miraks",
                "Name[pt]": "Stephane MANKOWSKI,miraks",
                "Name[ru]": "Stephane MANKOWSKI,miraks",
                "Name[sl]": "Stephane MANKOWSKI,miraks",
                "Name[sv]": "Stephane MANKOWSKI,miraks",
                "Name[tr]": "Stephane MANKOWSKI,miraks",
                "Name[uk]": "Stephane MANKOWSKI,miraks",
                "Name[x-test]": "xxStephane MANKOWSKI,miraksxx"
            }
        ],
        "Category": "Plugins",
        "Description": "A skrooge plugin to calculate",
        "Description[ca@valencia]": "Un connector de Skrooge per a calcular",
        "Description[ca]": "Un connector de l'Skrooge per a calcular",
        "Description[cs]": "Modul Skrooge pro provádění výpočtů",
        "Description[en_GB]": "A skrooge plugin to calculate",
        "Description[es]": "Complemento de Skrooge para hacer cálculos",
        "Description[fi]": "Skroogen laskinliitännäinen",
        "Description[fr]": "Un module externe de calcul pour Skrooge",
        "Description[it]": "Un'estensione per calcolare di Skrooge",
        "Description[ka]": "Skrooge-ის გამომთვლელი დამატება",
        "Description[nl]": "Een skrooge-plugin om mee te rekenen",
        "Description[pt]": "Um 'plugin' do Skrooge para efectuar cálculos.",
        "Description[ru]": "Модуль вычислений",
        "Description[sl]": "Vtičnik Skrooge za računalo",
        "Description[sv]": "Ett insticksprogram till Skrooge för beräkningar",
        "Description[tr]": "Hesaplama işlemleri için bir Varyemez eklentisi",
        "Description[uk]": "Додаток до skrooge для обчислень",
        "Description[x-test]": "xxA skrooge plugin to calculatexx",
        "EnabledByDefault": true,
        "Icon": "skrooge",
        "Id": "skrooge_calculator",
        "License": "GPL",
        "Name": "Skrooge calculator plugin",
        "Name[bs]": "Skrooge dodatak za kalkulator",
        "Name[ca@valencia]": "Connector de càlcul de Skrooge",
        "Name[ca]": "Connector de càlcul de l'Skrooge",
        "Name[cs]": "Výpočtový modul Skrooge",
        "Name[da]": "Regnemaskine-plugin til Skrooge",
        "Name[de]": "Skrooge-Rechnermodul",
        "Name[el]": "krooge calculator plugin",
        "Name[en_GB]": "Skrooge calculator plugin",
        "Name[eo]": "Skrooge kalkulila kromaĵo",
        "Name[es]": "Complemento de calculadora de Skrooge",
        "Name[et]": "Skrooge arvutusplugin",
        "Name[fi]": "Skroogen laskinliitännäinen",
        "Name[fr]": "Moteur externe Skrooge de calcul",
        "Name[gl]": "Complemento de calculadora de Skrooge",
        "Name[hu]": "Skrooge számológép bővítmény",
        "Name[it]": "Estensione calcolatrice di Skrooge",
        "Name[ka]": "Skrooge კალკულატორის დამატება",
        "Name[lt]": "Skrooge skaičiuotuvo papildinys",
        "Name[nb]": "Skrooge kalkulatormodul",
        "Name[nds]": "Taschenreeknermoduul för Skrooge",
        "Name[nl]": "Rekenmachine-plugin voor Skrooge",
        "Name[pl]": "Wtyczka kalkulatora dla Skrooge",
        "Name[pt]": "'Plugin' de calculadora do Skrooge",
        "Name[pt_BR]": "Plugin de calculadora do Skrooge",
        "Name[ru]": "Модуль вычислений",
        "Name[sk]": "Plugin kalkulačky Skrooge",
        "Name[sl]": "Vtičnik Skrooge kalkulatorja",
        "Name[sv]": "Skrooge insticksprogram med miniräknare",
        "Name[tr]": "Varyemez hesap makinesi eklentisi",
        "Name[uk]": "Додаток калькулятора Skrooge",
        "Name[x-test]": "xxSkrooge calculator pluginxx",
        "Name[zh_TW]": "Skrooge 計算機外掛程式",
        "ServiceTypes": [
            "SKG GUI/Plugin"
        ],
        "Version": "1.0",
        "Website": "https://skrooge.org/"
    },
    "X-Krunner-ID": "Skrooge calculator plugin"
}
